%YAML 1.1
%TAG !u! tag:unity3d.com,2011:
--- !u!21 &2100000
Material:
  serializedVersion: 6
  m_ObjectHideFlags: 0
  m_PrefabParentObject: {fileID: 0}
  m_PrefabInternal: {fileID: 0}
  m_Name: smoke_005
  m_Shader: {fileID: 200, guid: 0000000000000000f000000000000000, type: 0}
  m_ShaderKeywords: 
  m_LightmapFlags: 5
  m_CustomRenderQueue: -1
  stringTagMap: {}
  m_SavedProperties:
    serializedVersion: 2
    m_TexEnvs:
    - first:
        name: _MainTex
      second:
        m_Texture: {fileID: 2800000, guid: b797f0287a48c0e4fb98e08de349f91a, type: 3}
        m_Scale: {x: 1, y: 1}
        m_Offset: {x: 0, y: 0}
    m_Floats:
    - first:
        name: _Cutoff
      second: 0.5
    - first:
        name: _InvFade
      second: 3
    - first:
        name: _Shininess
      second: 1
    m_Colors:
    - first:
        name: _Color
      second: {r: 0.3134328, g: 0.3134328, b: 0.3134328, a: 1}
    - first:
        name: _Emission
      second: {r: 0.380597, g: 0.380597, b: 0.380597, a: 0}
    - first:
        name: _SpecColor
      second: {r: 0, g: 0, b: 0, a: 1}
    - first:
        name: _TintColor
      second: {r: 0.6641791, g: 0.6641791, b: 0.6641791, a: 0.5019608}
