%YAML 1.1
%TAG !u! tag:unity3d.com,2011:
--- !u!21 &2100000
Material:
  serializedVersion: 6
  m_ObjectHideFlags: 0
  m_PrefabParentObject: {fileID: 0}
  m_PrefabInternal: {fileID: 0}
  m_Name: Water
  m_Shader: {fileID: 4800000, guid: 9dccc8e8f0da4494991c26ef59019551, type: 3}
  m_ShaderKeywords: 
  m_LightmapFlags: 5
  m_CustomRenderQueue: -1
  stringTagMap: {}
  m_SavedProperties:
    serializedVersion: 2
    m_TexEnvs:
    - first:
        name: _BumpMap
      second:
        m_Texture: {fileID: 2800000, guid: a53cf5449d11a15d1100a04b44295342, type: 3}
        m_Scale: {x: 1, y: 1}
        m_Offset: {x: 0, y: 0}
    - first:
        name: _BumpMap2
      second:
        m_Texture: {fileID: 2800000, guid: 279fb0a19d11d4a6d00051fa8d76c639, type: 3}
        m_Scale: {x: 1, y: 1}
        m_Offset: {x: 0, y: 0}
    - first:
        name: _ColorControl
      second:
        m_Texture: {fileID: 2800000, guid: 047330f39d11745ad0004adb8d76c639, type: 3}
        m_Scale: {x: 1, y: 1}
        m_Offset: {x: 0, y: 0}
    - first:
        name: _ColorControlCube
      second:
        m_Texture: {fileID: 8900000, guid: 98c330f39d11745ad0004adb8d76c639, type: 3}
        m_Scale: {x: 1, y: 1}
        m_Offset: {x: 0, y: 0}
    - first:
        name: _ColorGradient
      second:
        m_Texture: {fileID: 2800000, guid: 8403d3349d112ba4d000be1be39e7c39, type: 3}
        m_Scale: {x: 1, y: 1}
        m_Offset: {x: 0, y: 0}
    - first:
        name: _MainTex
      second:
        m_Texture: {fileID: 2800000, guid: c2ef94ff9d11915d1100a04b44295342, type: 3}
        m_Scale: {x: 1, y: 1}
        m_Offset: {x: 0, y: 0}
    - first:
        name: _ReflectionTex
      second:
        m_Texture: {fileID: 8400000, guid: 21bb33409d118354d000dcabe39e7c39, type: 2}
        m_Scale: {x: 1, y: 1}
        m_Offset: {x: 0, y: 0}
    - first:
        name: _WavesTex
      second:
        m_Texture: {fileID: 0}
        m_Scale: {x: 1, y: 1}
        m_Offset: {x: 0, y: 0}
    m_Floats:
    - first:
        name: _BumpPeturb
      second: 82.07547
    - first:
        name: _BumpPeturb2
      second: 0.745283
    - first:
        name: _Highlight
      second: 33.207546
    - first:
        name: _Shininess
      second: 1
    - first:
        name: _WaveScale
      second: 0.07028302
    - first:
        name: _bScale
      second: 0.07
    - first:
        name: _bTwirl
      second: 0.05
    - first:
        name: _distort
      second: 0.1
    m_Colors:
    - first:
        name: BumpParm
      second: {r: 1, g: 1, b: 1, a: 1}
    - first:
        name: WaveSpeed
      second: {r: 9, g: 4.5, b: -8, a: -3.5}
    - first:
        name: _BumpMap_ST
      second: {r: 1, g: 1, b: 0, a: 0}
    - first:
        name: _Color
      second: {r: 0, g: 0, b: 0, a: 1}
    - first:
        name: _ColorControlCube_ST
      second: {r: 1, g: 1, b: 0, a: 0}
    - first:
        name: _ColorControl_ST
      second: {r: 1, g: 1, b: 0, a: 0}
    - first:
        name: _EdgeColor
      second: {r: 0, g: 0.1, b: 0, a: 0.1}
    - first:
        name: _MainTex_ST
      second: {r: 1, g: 1, b: 0, a: 0}
    - first:
        name: _RefTex_0
      second: {r: -1517.3702, g: -23.940853, b: -3154.9167, a: 2715.9417}
    - first:
        name: _RefTex_1
      second: {r: 356.58435, g: -313.12567, b: -962.84906, a: 2791.5066}
    - first:
        name: _RefTex_2
      second: {r: 4.95645, g: -0.1870566, b: -13.383406, a: 20.12336}
    - first:
        name: _RefTex_3
      second: {r: 4.955955, g: -0.18703793, b: -13.38207, a: 20.221354}
    - first:
        name: _SpecColor
      second: {r: 0, g: 0, b: 0, a: 0.4}
    - first:
        name: _WaveSpeed
      second: {r: 1, g: -1, b: -1, a: 1}
    - first:
        name: _horizonColor
      second: {r: 0.4460905, g: 0.6716418, b: 0.64325076, a: 0}
    - first:
        name: horizonColor
      second: {r: 0.615, g: 0.796, b: 0.876, a: 1}
    - first:
        name: uvParams
      second: {r: 10, g: 0.02, b: 0.03, a: 0}
    - first:
        name: waveDirX
      second: {r: -2.5, g: 0, b: 7, a: 8}
    - first:
        name: waveDirY
      second: {r: 0, g: 1.5, b: -7, a: 1}
    - first:
        name: waveHeights
      second: {r: 0.8, g: 1, b: 0.1, a: 0.05}
--- !u!1002 &2100001
EditorExtensionImpl:
  serializedVersion: 6
