%YAML 1.1
%TAG !u! tag:unity3d.com,2011:
--- !u!21 &2100000
Material:
  serializedVersion: 6
  m_ObjectHideFlags: 0
  m_PrefabParentObject: {fileID: 0}
  m_PrefabInternal: {fileID: 0}
  m_Name: Cloth_001
  m_Shader: {fileID: 4800000, guid: 89b66cf56abb7bb49807b4153acd312a, type: 3}
  m_ShaderKeywords: 
  m_LightmapFlags: 5
  m_CustomRenderQueue: -1
  stringTagMap: {}
  m_SavedProperties:
    serializedVersion: 2
    m_TexEnvs:
    - first:
        name: _MainTex
      second:
        m_Texture: {fileID: 2800000, guid: 0a6caa9e64c7628489bf2dda17e29e09, type: 3}
        m_Scale: {x: 1, y: 1}
        m_Offset: {x: 0, y: 0}
    - first:
        name: _Main_Tex
      second:
        m_Texture: {fileID: 2800000, guid: 12a0dfd3ef3e28f4f9629766ad5e66bf, type: 3}
        m_Scale: {x: 1, y: 1}
        m_Offset: {x: 0, y: 0}
    - first:
        name: _Normal
      second:
        m_Texture: {fileID: 0}
        m_Scale: {x: 1, y: 1}
        m_Offset: {x: 0, y: 0}
    m_Floats:
    - first:
        name: _A
      second: 0
    - first:
        name: _Cloth_wind
      second: 3
    - first:
        name: _Cloth_wind_Scale
      second: 0.5
    - first:
        name: _Sp
      second: 0.3283582
    - first:
        name: _WindEdgeFlutter
      second: 2.91
    - first:
        name: _WindEdgeFlutterFreqScale
      second: 4.67
    m_Colors:
    - first:
        name: _Color
      second: {r: 1, g: 1, b: 1, a: 1}
    - first:
        name: _Sp_C
      second: {r: 0.9477612, g: 0.8063043, b: 0.8063043, a: 1}
    - first:
        name: _Wind
      second: {r: -1, g: 0.5, b: 0.8, a: 0.6}
