%YAML 1.1
%TAG !u! tag:unity3d.com,2011:
--- !u!21 &2100000
Material:
  serializedVersion: 6
  m_ObjectHideFlags: 0
  m_PrefabParentObject: {fileID: 0}
  m_PrefabInternal: {fileID: 0}
  m_Name: point_2_2
  m_Shader: {fileID: 34, guid: 0000000000000000f000000000000000, type: 0}
  m_ShaderKeywords: 
  m_LightmapFlags: 5
  m_CustomRenderQueue: -1
  stringTagMap: {}
  m_SavedProperties:
    serializedVersion: 2
    m_TexEnvs:
    - first:
        name: _BumpMap
      second:
        m_Texture: {fileID: 0}
        m_Scale: {x: 1, y: 1}
        m_Offset: {x: 0, y: 0}
    - first:
        name: _DecalTex
      second:
        m_Texture: {fileID: 0}
        m_Scale: {x: 1, y: 1}
        m_Offset: {x: 0, y: 0}
    - first:
        name: _Illum
      second:
        m_Texture: {fileID: 0}
        m_Scale: {x: 1, y: 1}
        m_Offset: {x: 0, y: 0}
    - first:
        name: _MainTex
      second:
        m_Texture: {fileID: 2800000, guid: 37d54f0a1461aa14796db271ecb92c17, type: 3}
        m_Scale: {x: 1, y: 1}
        m_Offset: {x: 0, y: 0}
    - first:
        name: _ParallaxMap
      second:
        m_Texture: {fileID: 0}
        m_Scale: {x: 1, y: 1}
        m_Offset: {x: 0, y: 0}
    m_Floats:
    - first:
        name: _Cutoff
      second: 0.6567164
    - first:
        name: _EmissionLM
      second: 0
    - first:
        name: _InvFade
      second: 3
    - first:
        name: _Parallax
      second: 0.02
    - first:
        name: _Shininess
      second: 0.10000002
    m_Colors:
    - first:
        name: _Color
      second: {r: 1, g: 1, b: 1, a: 1}
    - first:
        name: _EmisColor
      second: {r: 1, g: 1, b: 1, a: 0}
    - first:
        name: _Emission
      second: {r: 0.3432836, g: 0.3432836, b: 0.3432836, a: 0}
    - first:
        name: _SpecColor
      second: {r: 0, g: 0, b: 0, a: 1}
    - first:
        name: _TintColor
      second: {r: 1, g: 1, b: 1, a: 0.5019608}
